%YAML 1.1
%TAG !u! tag:unity3d.com,2011:
--- !u!114 &-8237359228454325197
MonoBehaviour:
  m_ObjectHideFlags: 11
  m_CorrespondingSourceObject: {fileID: 0}
  m_PrefabInstance: {fileID: 0}
  m_PrefabAsset: {fileID: 0}
  m_GameObject: {fileID: 0}
  m_Enabled: 1
  m_EditorHideFlags: 0
  m_Script: {fileID: 11500000, guid: d0353a89b1f911e48b9e16bdc9f2e058, type: 3}
  m_Name: 
  m_EditorClassIdentifier: 
  version: 1
--- !u!21 &2100000
Material:
  serializedVersion: 6
  m_ObjectHideFlags: 0
  m_CorrespondingSourceObject: {fileID: 0}
  m_PrefabInstance: {fileID: 0}
  m_PrefabAsset: {fileID: 0}
  m_Name: M_ToonWaterCliffs
  m_Shader: {fileID: -6465566751694194690, guid: 27b042674da390c46a1ff4cc2317d5f2,
    type: 3}
  m_ShaderKeywords: 
  m_LightmapFlags: 4
  m_EnableInstancingVariants: 0
  m_DoubleSidedGI: 0
  m_CustomRenderQueue: -1
  stringTagMap: {}
  disabledShaderPasses: []
  m_SavedProperties:
    serializedVersion: 3
    m_TexEnvs:
    - _BaseMap:
        m_Texture: {fileID: 0}
        m_Scale: {x: 1, y: 1}
        m_Offset: {x: 0, y: 0}
    - _BumpMap:
        m_Texture: {fileID: 0}
        m_Scale: {x: 1, y: 1}
        m_Offset: {x: 0, y: 0}
    - _EmissionMap:
        m_Texture: {fileID: 0}
        m_Scale: {x: 1, y: 1}
        m_Offset: {x: 0, y: 0}
    - _MainTex:
        m_Texture: {fileID: 0}
        m_Scale: {x: 1, y: 1}
        m_Offset: {x: 0, y: 0}
    - _MetallicGlossMap:
        m_Texture: {fileID: 0}
        m_Scale: {x: 1, y: 1}
        m_Offset: {x: 0, y: 0}
    - _OcclusionMap:
        m_Texture: {fileID: 0}
        m_Scale: {x: 1, y: 1}
        m_Offset: {x: 0, y: 0}
    - _RefractedUV_EF863DB8_Texture2DB3BA6224_3692667832:
        m_Texture: {fileID: 0}
        m_Scale: {x: 1, y: 1}
        m_Offset: {x: 0, y: 0}
    - _SampleTexture2D_64F8674C_Texture_1:
        m_Texture: {fileID: 2800000, guid: 5c132010e7840f2459881a1df49bb54a, type: 3}
        m_Scale: {x: 1, y: 1}
        m_Offset: {x: 0, y: 0}
    - _SampleTexture2D_7B2B2B82_Texture_1:
        m_Texture: {fileID: 2800000, guid: fb185ecfc9465444fbbd0633fbb1b116, type: 3}
        m_Scale: {x: 1, y: 1}
        m_Offset: {x: 0, y: 0}
    - _SampleTexture2D_F0547BF3_Texture_1:
        m_Texture: {fileID: 2800000, guid: ad66234b82e26824c8a8c3ad70bfe94c, type: 3}
        m_Scale: {x: 1, y: 1}
        m_Offset: {x: 0, y: 0}
    - _SpecGlossMap:
        m_Texture: {fileID: 0}
        m_Scale: {x: 1, y: 1}
        m_Offset: {x: 0, y: 0}
    - _Texture2DAsset_11B1D7FA_Out_0:
        m_Texture: {fileID: 2800000, guid: 5c132010e7840f2459881a1df49bb54a, type: 3}
        m_Scale: {x: 1, y: 1}
        m_Offset: {x: 0, y: 0}
    m_Floats:
    - Vector1_29A8EAB: 0.45
    - Vector1_2A8F6279: 1
    - Vector1_332961FF: 0.74
    - Vector1_37C8707: 2.68
    - Vector1_3B552589: 0.025
    - Vector1_3C2CF0EB: 0.6
    - Vector1_4BC998ED: 6.9
    - Vector1_53B9698E: 10.4
    - Vector1_6113EFE9: 0.31
    - Vector1_6D2F0CBC: 14.6
    - Vector1_6D9DC178: 250
    - Vector1_762B0999: 1.77
    - Vector1_774EC4C7: 1
    - Vector1_79D00D02: 2.36
    - Vector1_7BA3C69: 31.23
    - Vector1_93DCFAA9: 15
    - Vector1_95BBCBE0: 800
    - Vector1_A133854A: 11.8
    - Vector1_A44A81E2: 7.76
    - Vector1_B85C292D: 0.69
    - Vector1_C2D280A7: 0.05
    - Vector1_C5543ECF: 1.27
    - Vector1_D0152DA0: 0
    - Vector1_E23798DE: 0.36
    - Vector1_E9C8561D: 1
    - _AlphaClip: 0
    - _Blend: 0
    - _BumpScale: 1
    - _Cull: 2
    - _Cutoff: 0.5
    - _DstBlend: 0
    - _EnvironmentReflections: 1
    - _GlossMapScale: 0
    - _Glossiness: 0
    - _GlossyReflections: 0
    - _Metallic: 0
    - _OcclusionStrength: 1
    - _QueueOffset: 0
    - _ReceiveShadows: 1
    - _Smoothness: 0.5
    - _SmoothnessTextureChannel: 0
    - _SpecularHighlights: 1
    - _SrcBlend: 1
    - _Surface: 0
    - _WorkflowMode: 1
    - _ZWrite: 1
    m_Colors:
    - Color_12969635: {r: 0.55789423, g: 0.5943396, b: 0.56662315, a: 0}
    - Color_57536629: {r: 0.5283019, g: 0.44606623, b: 0.44606623, a: 1}
    - Color_6212414: {r: 0, g: 0, b: 0, a: 0}
    - Color_6C205173: {r: 0.66723037, g: 0.9622642, b: 0.90268284, a: 0.24705882}
    - Color_A271762B: {r: 0.008232466, g: 0.09403445, b: 0.3490566, a: 0.9215686}
    - Color_AFFD055F: {r: 1, g: 1, b: 1, a: 1}
    - Color_D1A9BF61: {r: 0.10791197, g: 0.7538539, b: 0.9150943, a: 0}
    - Color_E0824245: {r: 0.0747597, g: 0.3256177, b: 0.754717, a: 0.7294118}
    - Vector2_21D6CA06: {r: 1, g: 1, b: 0, a: 0}
    - Vector2_56F40C30: {r: 8000, g: 8000, b: 0, a: 0}
    - Vector2_5AA45A7C: {r: 0.32, g: 1, b: 0, a: 0}
    - Vector2_84C321FC: {r: 20, g: 20, b: 0, a: 0}
    - Vector2_8784815D: {r: 0, g: 0, b: 0, a: 0}
    - Vector2_9B4544AD: {r: 5000, g: 5000, b: 0, a: 0}
    - Vector2_D0F99E34: {r: 1, g: 1, b: 0, a: 0}
    - _BaseColor: {r: 1, g: 1, b: 1, a: 1}
    - _Color: {r: 1, g: 1, b: 1, a: 1}
    - _EmissionColor: {r: 0, g: 0, b: 0, a: 1}
    - _SpecColor: {r: 0.19999996, g: 0.19999996, b: 0.19999996, a: 1}
