%YAML 1.1
%TAG !u! tag:unity3d.com,2011:
--- !u!114 &11400000
MonoBehaviour:
  m_ObjectHideFlags: 0
  m_CorrespondingSourceObject: {fileID: 0}
  m_PrefabInstance: {fileID: 0}
  m_PrefabAsset: {fileID: 0}
  m_GameObject: {fileID: 0}
  m_Enabled: 1
  m_EditorHideFlags: 0
  m_Script: {fileID: 11500000, guid: 9f3758f8f58fdef43803eb9be1df0608, type: 3}
  m_Name: PhotonServerSettings
  m_EditorClassIdentifier: 
  AppSettings:
    AppIdRealtime: fe895f91-bb70-4938-bedb-5974353b1400
    AppIdChat: 
    AppIdVoice: 
    AppVersion: 
    UseNameServer: 1
    FixedRegion: 
    Server: 
    Port: 0
    ProxyServer: 
    Protocol: 0
    EnableProtocolFallback: 1
    AuthMode: 0
    EnableLobbyStatistics: 0
    NetworkLogging: 5
  DevRegion: eu
  PunLogging: 2
  EnableSupportLogger: 0
  RunInBackground: 1
  StartInOfflineMode: 0
  RpcList:
  - ActivateMuzzle
  - ActiveImpactParticle
  - ActiveProjectileParticle
  - ArmPicked
  - ClickRpc
  - Damage
  - DestroyObject
  - DestroyParticles
  - DestroyRpc
  - DestroySpaceship
  - Fire
  - PopEffectEnd
  - PopEffectStart
  - PopEffectStopBrutality
  - Reload
  - ReloadInstant
  - RespawnSpaceship
  - RPC_Damage
  - RPC_Death
  - RPC_HitFeedback
  - RPC_Initialize
  - RPC_Retry
  - RPC_SendModel
  - RpcClearBuffer
  - RpcNonServerOwnedTeleportFromServer
  - RpcTeleport
  - Shoot
  - UnmountArm
  DisableAutoOpenWizard: 1
  ShowSettings: 1
  DevRegionSetOnce: 1
