%YAML 1.1
%TAG !u! tag:unity3d.com,2011:
--- !u!114 &11400000
MonoBehaviour:
  m_ObjectHideFlags: 0
  m_CorrespondingSourceObject: {fileID: 0}
  m_PrefabInstance: {fileID: 0}
  m_PrefabAsset: {fileID: 0}
  m_GameObject: {fileID: 0}
  m_Enabled: 1
  m_EditorHideFlags: 0
  m_Script: {fileID: 11500000, guid: 19ca4c66aa07b6d40885ccab05a707f2, type: 3}
  m_Name: GenericRobot
  m_EditorClassIdentifier: 
  _robotName: Common
  _robotPath: PhotonPrefabs/Core/Robots/Robottest
  _speedsByNumArm:
  - 16
  - 11
  - 8
  - 6
  _prefab: {fileID: 401219576106664995, guid: 8ef4b2d16f3a5464787a1ea7d204ddd0, type: 3}
  Images:
  - ImageType: Normal
    SpriteImg: {fileID: 21300000, guid: 9589e1351b8ecea4fa4d8a295ffdf3ac, type: 3}
  - ImageType: Sad
    SpriteImg: {fileID: 21300000, guid: 8e90abee4b306024d9a0bbb7b8f3512c, type: 3}
