{
    "AutoNames": true,
    "SubFolders": true,
    "OverwriteConfig": false,
    "LoadAllShaders": false,
    "CustomOutputPath": "ArmRobber/Shaders/ArmRobber/Water",
    "LastImplementationExportImportPath": "E:/Progetti/Unity/ArmRobberGit/Assets",
    "OpenedFoldouts": [
        "LIGHTING",
        "SURFACE",
        "SPECIAL EFFECTS",
        "SHADER STATES",
        "TRANSPARENCY/BLENDING",
        "OPTIONS"
    ],
    "UseCustomFont": true,
    "CustomFont": {
        "fileID": 12800000,
        "guid": "8a406076b7de34849be1f35585875a66",
        "type": 3
    },
    "CustomFontInitialized": true
}